<svg xmlns="http://www.w3.org/2000/svg" xmlns:xlink="http://www.w3.org/1999/xlink" width="231.811" height="81.761" viewBox="-1.04621 -1.00837 582.092 402.017" preserveAspectRatio="xMidYMid meet" ><rect id="svgEditorBackground" x="-1" y="-1" width="582" height="402" style="fill:none; stroke: none;"/>

 <g>
  <title>background</title>
  <rect fill="none" id="canvas_background" height="402" width="582" y="-1" x="-1"/>
 </g>
 <g transform="matrix(4.56205 0 0 4.56205 -962.692 30.1727)">
  <title>Layer 1</title>
  <g stroke="null" id="svg_1">
   <path stroke="null" id="svg_2" d="m179.429,76.026329c3.797,1.353353 7.753,2.039645 11.761,2.039645l0.003,0c9.432,-0.001012 18.315,-3.734119 25.015,-10.515053c13.803,-13.972833 13.803,-36.707536 0,-50.678345c-0.926,-0.937326 -2.765,-0.937326 -3.689,0l-8.535,8.642426c-1.019,1.029439 -1.019,2.704681 0,3.734119c0.984,0.997047 2.703,0.997047 3.688,-0.001012l6.616,-6.697931l0.349,0.437284c9.755,12.17916 8.843,29.732254 -2.118,40.82934c-5.712,5.78085 -13.285,8.964316 -21.328,8.964316c-3.854,0 -7.637,-0.738928 -11.238,-2.197553c-0.482,-0.288486 -0.951,-0.4221 -1.43,-0.4221c-0.696,0 -1.352,0.274315 -1.844,0.773344l-8.098,8.19502c-1.018,1.030451 -1.018,2.706705 0,3.736144c0.988,0.996035 2.706,0.996035 3.689,0l6.862,-6.944915l0.297,0.105272z" fill="#004A6E"/>
   <path stroke="null" id="svg_3" d="m213.806,1.599026c-0.985,-0.996035 -2.704,-0.996035 -3.69,0l-6.86,6.944915l-0.297,-0.105272c-3.799,-1.353353 -7.756,-2.039645 -11.765,-2.039645c-9.432,0 -18.313,3.734119 -25.016,10.515053c-13.802,13.972833 -13.802,36.707536 0,50.679357c0.979,0.990974 2.712,0.990974 3.691,0l8.536,-8.643438c0.493,-0.49903 0.763,-1.161029 0.763,-1.867566c0,-0.704513 -0.27,-1.368536 -0.763,-1.866554c-0.986,-0.99806 -2.706,-0.99806 -3.689,0l-6.616,6.698943l-0.349,-0.437284c-9.755,-12.17916 -8.844,-29.732254 2.118,-40.828327c5.713,-5.782874 13.287,-8.96634 21.328,-8.96634c3.854,0 7.635,0.738928 11.235,2.197553c1.187,0.713623 2.444,0.48992 3.276,-0.350232l8.097,-8.196032c1.019,-1.029439 1.019,-2.704681 0.001,-3.735131z" fill="#2B75A1"/>
   <path stroke="null" id="svg_4" d="M207.455,25.81361c-4.340000000000003,-4.395106000000002,-10.111999999999995,-6.814336999999998,-16.253000000000014,-6.814336999999998c-6.139999999999986,0,-11.913999999999987,2.4202440000000003,-16.256,6.814337000000002c-4.341000000000008,4.393081000000002,-6.731999999999999,10.235677000000003,-6.731999999999999,16.452799c0,6.216109000000003,2.391999999999996,12.059717,6.733000000000004,16.455835c4.342999999999989,4.393081000000002,10.115000000000009,6.812313000000003,16.25200000000001,6.812313000000003c6.139999999999986,0,11.913000000000011,-2.4212559999999996,16.256,-6.816361999999998c4.336000000000013,-4.388019999999997,6.7239999999999895,-10.229604000000002,6.7239999999999895,-16.451786s-2.3880000000000052,-12.064778,-6.7239999999999895,-16.452799ZM203.76500000000001,54.984076c-3.3559999999999945,3.397046000000003,-7.818999999999988,5.268661000000002,-12.566000000000003,5.268661000000002s-9.206999999999994,-1.870601999999998,-12.562000000000012,-5.2656240000000025c-3.3559999999999945,-3.3980589999999964,-5.205999999999989,-7.915644,-5.205999999999989,-12.719692000000002c0,-4.806072,1.8499999999999943,-9.321632999999999,5.2050000000000125,-12.717666999999999c3.3569999999999993,-3.396034,7.818999999999988,-5.267648999999999,12.566000000000003,-5.267648999999999c4.746000000000009,0,9.207999999999998,1.8716149999999985,12.562999999999988,5.267648999999999c3.3499999999999943,3.3919849999999983,5.193999999999988,7.907547000000001,5.193999999999988,12.717666999999999c0.0010000000000047748,4.808095999999999,-1.843999999999994,9.324669999999998,-5.193999999999988,12.716655000000003Z" fill="#BD1F59"/>
   
   
   
   <path stroke="null" id="svg_8" d="M306.48325132921013,55.124595294813396l-27.633000000000038,0c-1.3829999999999814,0.0010120000000028995,-2.001999999999896,1.3270350000000022,-2.001999999999896,2.6388859999999994c0,1.5750310000000027,0.7679999999999154,2.5528459999999953,2.001999999999896,2.553857999999998l27.633000000000038,-0.0010120000000028995c1.0070000000000618,0,2.0930000000000746,-0.9768030000000039,2.0930000000000746,-2.5528460000000024c-0.0009999999999763531,-1.5102479999999971,-1.1059999999999945,-2.6388859999999994,-2.0930000000000746,-2.6388859999999994Z" fill="#BD1F59"/>
   <path stroke="null" id="svg_9" d="M306.48525132921014,25.090696294813398c1.0049999999999955,0,2.091000000000008,-0.9757899999999999,2.091000000000008,-2.5518339999999924c0,-1.5102480000000078,-1.1050000000000182,-2.639898000000006,-2.0930000000000177,-2.640910000000005l-27.633000000000095,0.0010119999999993468c-1.3829999999999814,0,-2.001999999999896,1.3270349999999986,-2.001999999999896,2.639898000000006c0,1.5740189999999927,0.7679999999999154,2.5518339999999924,2.001999999999896,2.5518339999999924l27.633000000000095,0l0.0020000000000095497,0Z" fill="#BD1F59"/>
   <path stroke="null" id="svg_10" d="M278.84925132921006,42.703511294813396l27.63400000000007,0c1.007000000000005,0,2.0930000000000177,-0.9768029999999968,2.0930000000000177,-2.5528460000000024c0,-1.5112609999999975,-1.1040000000000418,-2.6398980000000023,-2.0930000000000177,-2.6398980000000023l-27.63100000000003,0c-1.3839999999999577,0.0010120000000028995,-2.0039999999999623,1.3270350000000022,-2.0039999999999623,2.6398980000000023c0,1.5750310000000027,0.7659999999999627,2.5528460000000024,1.9979999999999905,2.5528460000000024l0.0029999999999290594,0Z" fill="#BD1F59"/>
   
  <text dy="-0.5em" style="fill:black;font-family:Arial;font-size:20px;" id="e2_texte"><textPath id="e1_textPath" xlink:href="#svg_8"/></text><text dy="-0.5em" style="fill:black;font-family:Arial;font-size:20px;" id="e4_texte"/><text dy="-0.5em" style="fill:black;font-family:Arial;font-size:20px;" id="e8_texte"/></g>
 </g>
<text style="fill:black;font-family:Arial;font-size:20px;" x="228.939" y="142.028" id="e5_texte"/><text style="fill:#2B75A1;font-family:Comic Sans;font-size:60px;" x="223.647" y="60.2979" id="e9_texte" dy="" dx="" transform="matrix(4.56205 0 0 4.56205 -962.692 30.1727)">M</text><text style="fill:#004A6E;font-family:Comic Sans;font-size:60px;" x="310.195" y="60.7731" id="e10_texte" dy="" dx="" transform="matrix(4.56205 0 0 4.56205 -962.692 30.1727)">GA</text></svg>