<?xml version="1.0" encoding="utf-8"?>
<!-- Generator: Adobe Illustrator 16.0.0, SVG Export Plug-In . SVG Version: 6.00 Build 0)  -->
<!DOCTYPE svg PUBLIC "-//W3C//DTD SVG 1.1//EN" "http://www.w3.org/Graphics/SVG/1.1/DTD/svg11.dtd">
<svg version="1.1" id="Layer_1" xmlns="http://www.w3.org/2000/svg" xmlns:xlink="http://www.w3.org/1999/xlink" x="0px" y="0px"
	 width="231.811px" height="81.761px" viewBox="21.827 4.852 231.811 81.761" enable-background="new 21.827 4.852 231.811 81.761"
	 xml:space="preserve">
<g>
	<path fill="#004A6E" d="M45.429,79.118c3.797,1.337,7.753,2.015,11.761,2.015h0.003c9.432-0.001,18.315-3.689,25.015-10.388
		c13.803-13.804,13.803-36.264,0-50.066c-0.926-0.926-2.765-0.926-3.689,0l-8.535,8.538c-1.019,1.017-1.019,2.672,0,3.689
		c0.984,0.985,2.703,0.985,3.688-0.001l6.616-6.617l0.349,0.432c9.755,12.032,8.843,29.373-2.118,40.336
		c-5.712,5.711-13.285,8.856-21.328,8.856c-3.854,0-7.637-0.73-11.238-2.171c-0.482-0.285-0.951-0.417-1.43-0.417
		c-0.696,0-1.352,0.271-1.844,0.764l-8.098,8.096c-1.018,1.018-1.018,2.674,0,3.691c0.988,0.984,2.706,0.984,3.689,0l6.862-6.861
		L45.429,79.118z"/>
	<path fill="#2B75A1" d="M79.806,5.59c-0.985-0.984-2.704-0.984-3.69,0l-6.86,6.861l-0.297-0.104
		c-3.799-1.337-7.756-2.015-11.765-2.015c-9.432,0-18.313,3.689-25.016,10.388c-13.802,13.804-13.802,36.264,0,50.067
		c0.979,0.979,2.712,0.979,3.691,0l8.536-8.539c0.493-0.493,0.763-1.147,0.763-1.845c0-0.696-0.27-1.352-0.763-1.844
		c-0.986-0.986-2.706-0.986-3.689,0L34.1,65.177l-0.349-0.432c-9.755-12.032-8.844-29.373,2.118-40.335
		c5.713-5.713,13.287-8.858,21.328-8.858c3.854,0,7.635,0.73,11.235,2.171c1.187,0.705,2.444,0.484,3.276-0.346l8.097-8.097
		C80.824,8.263,80.824,6.608,79.806,5.59z"/>
	<path fill="#BD1F59" d="M73.455,29.512c-4.34-4.342-10.112-6.732-16.253-6.732c-6.14,0-11.914,2.391-16.256,6.732
		c-4.341,4.34-6.732,10.112-6.732,16.254c0,6.141,2.392,11.914,6.733,16.257c4.343,4.34,10.115,6.73,16.252,6.73
		c6.14,0,11.913-2.392,16.256-6.734c4.336-4.335,6.724-10.106,6.724-16.253S77.791,33.847,73.455,29.512z M69.765,58.33
		c-3.356,3.356-7.819,5.205-12.566,5.205s-9.207-1.848-12.562-5.202c-3.356-3.357-5.206-7.82-5.206-12.566
		c0-4.748,1.85-9.209,5.205-12.564c3.357-3.355,7.819-5.204,12.566-5.204c4.746,0,9.208,1.849,12.563,5.204
		c3.35,3.351,5.194,7.812,5.194,12.564C74.96,50.517,73.115,54.979,69.765,58.33z"/>
	<path fill="#2B75A1" d="M168.126,60.817h-20.723l20.566-30.056c0.629-0.79,0.949-1.639,0.949-2.483
		c0-1.554-1.084-2.262-2.092-2.262h-24.695c-0.674,0-1.109,0.399-1.355,0.735c-0.357,0.484-0.561,1.167-0.561,1.872
		c0,0.667,0.223,1.328,0.611,1.812c0.363,0.451,0.838,0.709,1.303,0.709l18.822,0.001L140.47,61.201
		c-0.396,0.517-1.031,1.503-1.031,2.568c0,0.561,0.193,1.105,0.533,1.495c0.389,0.446,0.957,0.682,1.643,0.682h26.51
		c1.26,0,1.918-1.269,1.918-2.522C170.042,62.01,169.165,60.817,168.126,60.817z"/>
	<path fill="#004A6E" d="M214.015,63.856V28.019c0-0.676-0.461-1.127-0.848-1.387c-0.59-0.397-1.4-0.616-2.279-0.616
		c-1.734,0-3.041,0.861-3.041,2.004v35.836c0,0.986,1.299,2.09,3.039,2.09h0.002C212.648,65.946,214.015,64.823,214.015,63.856z"/>
	<path fill="#004A6E" d="M253.327,29.65c0.201-0.404,0.311-0.837,0.311-1.198c0-0.351-0.188-0.717-0.559-1.088
		c-0.908-0.91-2.598-1.521-3.604-1.521c-0.932,0-1.438,0.385-1.869,1.421l-11.258,30.251L224.917,26.9
		c-0.35-0.955-1.422-1.058-1.865-1.058c-1.742,0-4.076,1.29-4.076,2.609c0,0.308,0.203,0.887,0.291,1.134l14.182,35.9
		c0.316,0.76,1.428,1.236,2.902,1.236c1.264,0,2.506-0.553,2.826-1.26L253.327,29.65z"/>
	<path fill="#2B75A1" d="M131.618,60.816h-27.633c-1.383,0.001-2.002,1.311-2.002,2.607c0,1.556,0.768,2.522,2.002,2.523
		l27.633-0.001c1.007,0,2.093-0.965,2.093-2.522C133.71,61.931,132.605,60.816,131.618,60.816z"/>
	<path fill="#2B75A1" d="M131.62,31.145c1.005,0,2.091-0.964,2.091-2.521c0-1.492-1.105-2.608-2.093-2.609l-27.633,0.001
		c-1.383,0-2.002,1.311-2.002,2.608c0,1.555,0.768,2.521,2.002,2.521h27.633H131.62z"/>
	<path fill="#2B75A1" d="M103.984,48.545h27.634c1.007,0,2.093-0.965,2.093-2.522c0-1.493-1.104-2.608-2.093-2.608h-27.631
		c-1.384,0.001-2.004,1.311-2.004,2.608c0,1.556,0.766,2.522,1.998,2.522H103.984z"/>
	<path fill="#004A6E" d="M200.452,61.549c-0.404-0.466-0.914-0.733-1.402-0.733h-16.24V26.812c0-0.401-0.162-0.769-0.484-1.091
		c-0.568-0.57-1.555-0.911-2.637-0.911c-1.791,0-3.041,0.823-3.043,2.003v37.043c0,0.134,0.033,0.286,0.107,0.479
		c0.279,1.058,0.945,1.611,1.893,1.611h20.402c0.477,0,0.967-0.219,1.348-0.6c0.48-0.48,0.744-1.163,0.744-1.922
		C201.14,62.727,200.896,62.062,200.452,61.549z"/>
</g>
</svg>
