C:\Workspaces\Megavita\Megavita\EZ.EZControl.Web\typescript\generated\ez.js
C:\Workspaces\Megavita\Megavita\EZ.EZControl.Web\typescript\generated\ez.js.map
C:\Workspaces\Megavita\Megavita\EZ.EZControl.Web\typescript\generated\ez.js
C:\Workspaces\Megavita\Megavita\EZ.EZControl.Web\typescript\generated\ez.js.map
C:\Workspaces\Megavita\Megavita\EZ.EZControl.Web\typescript\generated\ez.js
C:\Workspaces\Megavita\Megavita\EZ.EZControl.Web\typescript\generated\ez.js.map
C:\Workspaces\Megavita\Megavita\EZ.EZControl.Web\typescript\generated\ez.js
C:\Workspaces\Megavita\Megavita\EZ.EZControl.Web\typescript\generated\ez.js.map
C:\Workspaces\Megavita\Megavita\EZ.EZControl.Web\typescript\generated\ez.js
C:\Workspaces\Megavita\Megavita\EZ.EZControl.Web\typescript\generated\ez.js.map
C:\Workspaces\Megavita\Megavita\EZ.EZControl.Web\typescript\generated\ez.js
C:\Workspaces\Megavita\Megavita\EZ.EZControl.Web\typescript\generated\ez.js.map
C:\Workspaces\Megavita\Megavita\EZ.EZControl.Web\typescript\generated\ez.js
C:\Workspaces\Megavita\Megavita\EZ.EZControl.Web\typescript\generated\ez.js.map
C:\Workspaces\Megavita\Megavita\EZ.EZControl.Web\typescript\generated\ez.js
C:\Workspaces\Megavita\Megavita\EZ.EZControl.Web\typescript\generated\ez.js.map
C:\Workspaces\Megavita\Megavita\EZ.EZControl.Web\typescript\generated\ez.js
C:\Workspaces\Megavita\Megavita\EZ.EZControl.Web\typescript\generated\ez.js.map
C:\Workspaces\Megavita\Megavita\EZ.EZControl.Web\typescript\generated\ez.js
C:\Workspaces\Megavita\Megavita\EZ.EZControl.Web\typescript\generated\ez.js.map
C:\Workspaces\Megavita\Megavita\EZ.EZControl.Web\typescript\generated\ez.js
C:\Workspaces\Megavita\Megavita\EZ.EZControl.Web\typescript\generated\ez.js.map
C:\Workspaces\Megavita\Megavita\EZ.EZControl.Web\typescript\generated\ez.js
C:\Workspaces\Megavita\Megavita\EZ.EZControl.Web\typescript\generated\ez.js.map
C:\Workspaces\Megavita\Megavita\EZ.EZControl.Web\typescript\generated\ez.js
C:\Workspaces\Megavita\Megavita\EZ.EZControl.Web\typescript\generated\ez.js.map
C:\Workspaces\Megavita\Megavita\EZ.EZControl.Web\typescript\generated\ez.js
C:\Workspaces\Megavita\Megavita\EZ.EZControl.Web\typescript\generated\ez.js.map
C:\Workspaces\Megavita\Megavita\EZ.EZControl.Web\typescript\generated\ez.js
C:\Workspaces\Megavita\Megavita\EZ.EZControl.Web\typescript\generated\ez.js.map
C:\Workspaces\Megavita\Megavita\EZ.EZControl.Web\typescript\generated\ez.js
C:\Workspaces\Megavita\Megavita\EZ.EZControl.Web\typescript\generated\ez.js.map
C:\Workspaces\Megavita\Megavita\EZ.EZControl.Web\typescript\generated\ez.js
C:\Workspaces\Megavita\Megavita\EZ.EZControl.Web\typescript\generated\ez.js.map
C:\Workspaces\Megavita\Megavita\EZ.EZControl.Web\typescript\generated\ez.js
C:\Workspaces\Megavita\Megavita\EZ.EZControl.Web\typescript\generated\ez.js.map
C:\Workspaces\Megavita\Megavita\EZ.EZControl.Web\typescript\generated\ez.js
C:\Workspaces\Megavita\Megavita\EZ.EZControl.Web\typescript\generated\ez.js.map
C:\Workspaces\Megavita\Megavita\EZ.EZControl.Web\typescript\generated\ez.js
C:\Workspaces\Megavita\Megavita\EZ.EZControl.Web\typescript\generated\ez.js.map
C:\Workspaces\Megavita\Megavita\EZ.EZControl.Web\typescript\generated\ez.js
C:\Workspaces\Megavita\Megavita\EZ.EZControl.Web\typescript\generated\ez.js.map
C:\Workspaces\Megavita\Megavita\EZ.EZControl.Web\typescript\generated\ez.js
C:\Workspaces\Megavita\Megavita\EZ.EZControl.Web\typescript\generated\ez.js.map
C:\Workspaces\Megavita\Megavita\EZ.EZControl.Web\typescript\generated\ez.js
C:\Workspaces\Megavita\Megavita\EZ.EZControl.Web\typescript\generated\ez.js.map
C:\Workspaces\Megavita\Megavita\EZ.EZControl.Web\typescript\generated\ez.js
C:\Workspaces\Megavita\Megavita\EZ.EZControl.Web\typescript\generated\ez.js.map
C:\Workspaces\Megavita\Megavita\EZ.EZControl.Web\typescript\generated\ez.js
C:\Workspaces\Megavita\Megavita\EZ.EZControl.Web\typescript\generated\ez.js.map
C:\Workspaces\Megavita\Megavita\EZ.EZControl.Web\typescript\generated\ez.js
C:\Workspaces\Megavita\Megavita\EZ.EZControl.Web\typescript\generated\ez.js.map
C:\Workspaces\Megavita\Megavita\EZ.EZControl.Web\typescript\generated\ez.js
C:\Workspaces\Megavita\Megavita\EZ.EZControl.Web\typescript\generated\ez.js.map
C:\Workspaces\Megavita\Megavita\EZ.EZControl.Web\typescript\generated\ez.js
C:\Workspaces\Megavita\Megavita\EZ.EZControl.Web\typescript\generated\ez.js.map
C:\Workspaces\Megavita\Megavita\EZ.EZControl.Web\typescript\generated\ez.js
C:\Workspaces\Megavita\Megavita\EZ.EZControl.Web\typescript\generated\ez.js.map
C:\Workspaces\Megavita\Megavita\EZ.EZControl.Web\typescript\generated\ez.js
C:\Workspaces\Megavita\Megavita\EZ.EZControl.Web\typescript\generated\ez.js.map
C:\Workspaces\PortalMega\Megavita\Megavita\EZ.EZControl.Web\typescript\generated\ez.js
C:\Workspaces\PortalMega\Megavita\Megavita\EZ.EZControl.Web\typescript\generated\ez.js.map
C:\Workspaces\PortalMega\Megavita\Megavita\EZ.EZControl.Web\typescript\generated\ez.js
C:\Workspaces\PortalMega\Megavita\Megavita\EZ.EZControl.Web\typescript\generated\ez.js.map
C:\Workspaces\PortalMega\Megavita\Megavita\EZ.EZControl.Web\typescript\generated\ez.js
C:\Workspaces\PortalMega\Megavita\Megavita\EZ.EZControl.Web\typescript\generated\ez.js.map
C:\Workspaces\PortalMega\Megavita\Megavita\EZ.EZControl.Web\typescript\generated\ez.js
C:\Workspaces\PortalMega\Megavita\Megavita\EZ.EZControl.Web\typescript\generated\ez.js.map
C:\Workspaces\PortalMega\Megavita\Megavita\EZ.EZControl.Web\typescript\generated\ez.js
C:\Workspaces\PortalMega\Megavita\Megavita\EZ.EZControl.Web\typescript\generated\ez.js.map
C:\Workspaces\PortalMega\Megavita\Megavita\EZ.EZControl.Web\typescript\generated\ez.js
C:\Workspaces\PortalMega\Megavita\Megavita\EZ.EZControl.Web\typescript\generated\ez.js.map
C:\Workspaces\Portal\Portal\EZ.EZControl.Web\typescript\generated\ez.js
C:\Workspaces\Portal\Portal\EZ.EZControl.Web\typescript\generated\ez.js.map
C:\Workspaces\Portal\Portal\EZ.EZControl.Web\typescript\generated\ez.js
C:\Workspaces\Portal\Portal\EZ.EZControl.Web\typescript\generated\ez.js.map
C:\Workspaces\Portal\Portal\EZ.EZControl.Web\typescript\generated\ez.js
C:\Workspaces\Portal\Portal\EZ.EZControl.Web\typescript\generated\ez.js.map
C:\Workspaces\Portal\Portal\EZ.EZControl.Web\typescript\generated\ez.js
C:\Workspaces\Portal\Portal\EZ.EZControl.Web\typescript\generated\ez.js.map
C:\Workspaces\Portal\Portal\EZ.EZControl.Web\typescript\generated\ez.js
C:\Workspaces\Portal\Portal\EZ.EZControl.Web\typescript\generated\ez.js.map
C:\Workspaces\Portal\Portal\EZ.EZControl.Web\typescript\generated\ez.js
C:\Workspaces\Portal\Portal\EZ.EZControl.Web\typescript\generated\ez.js.map
C:\Workspaces\Portal\Portal\EZ.EZControl.Web\typescript\generated\ez.js
C:\Workspaces\Portal\Portal\EZ.EZControl.Web\typescript\generated\ez.js.map
C:\Workspaces\Portal\Portal\EZ.EZControl.Web\typescript\generated\ez.js
C:\Workspaces\Portal\Portal\EZ.EZControl.Web\typescript\generated\ez.js.map
C:\Workspaces\Portal\Portal\EZ.EZControl.Web\typescript\generated\ez.js
C:\Workspaces\Portal\Portal\EZ.EZControl.Web\typescript\generated\ez.js.map
C:\Workspaces\Portal\Portal\EZ.EZControl.Web\typescript\generated\ez.js
C:\Workspaces\Portal\Portal\EZ.EZControl.Web\typescript\generated\ez.js.map
C:\Workspaces\Portal\Portal\EZ.EZControl.Web\typescript\generated\ez.js
C:\Workspaces\Portal\Portal\EZ.EZControl.Web\typescript\generated\ez.js.map
C:\Workspaces\Portal\Portal\EZ.EZControl.Web\typescript\generated\ez.js
C:\Workspaces\Portal\Portal\EZ.EZControl.Web\typescript\generated\ez.js.map
C:\Workspaces\Portal\Portal\EZ.EZControl.Web\typescript\generated\ez.js
C:\Workspaces\Portal\Portal\EZ.EZControl.Web\typescript\generated\ez.js.map
C:\Workspaces\Portal\Portal\EZ.EZControl.Web\typescript\generated\ez.js
C:\Workspaces\Portal\Portal\EZ.EZControl.Web\typescript\generated\ez.js.map
C:\Workspaces\Portal\Portal\EZ.EZControl.Web\typescript\generated\ez.js
C:\Workspaces\Portal\Portal\EZ.EZControl.Web\typescript\generated\ez.js.map
C:\Workspaces\Portal\Portal\EZ.EZControl.Web\typescript\generated\ez.js
C:\Workspaces\Portal\Portal\EZ.EZControl.Web\typescript\generated\ez.js.map
C:\Workspaces\Portal\Portal\EZ.EZControl.Web\typescript\generated\ez.js
C:\Workspaces\Portal\Portal\EZ.EZControl.Web\typescript\generated\ez.js.map
C:\Workspaces\Portal\Portal\EZ.EZControl.Web\typescript\generated\ez.js
C:\Workspaces\Portal\Portal\EZ.EZControl.Web\typescript\generated\ez.js.map
C:\Workspaces\Portal\Portal\EZ.EZControl.Web\typescript\generated\ez.js
C:\Workspaces\Portal\Portal\EZ.EZControl.Web\typescript\generated\ez.js.map
C:\Workspaces\Portal\Portal\EZ.EZControl.Web\typescript\generated\ez.js
C:\Workspaces\Portal\Portal\EZ.EZControl.Web\typescript\generated\ez.js.map
C:\Workspaces\Portal\Portal\EZ.EZControl.Web\typescript\generated\ez.js
C:\Workspaces\Portal\Portal\EZ.EZControl.Web\typescript\generated\ez.js.map
C:\Workspaces\Portal\Portal\EZ.EZControl.Web\typescript\generated\ez.js
C:\Workspaces\Portal\Portal\EZ.EZControl.Web\typescript\generated\ez.js.map
C:\Workspaces\Portal\Portal\EZ.EZControl.Web\typescript\generated\ez.js
C:\Workspaces\Portal\Portal\EZ.EZControl.Web\typescript\generated\ez.js.map
C:\Workspaces\Portal\Portal\EZ.EZControl.Web\typescript\generated\ez.js
C:\Workspaces\Portal\Portal\EZ.EZControl.Web\typescript\generated\ez.js.map
C:\Workspaces\Portal\Portal\EZ.EZControl.Web\typescript\generated\ez.js
C:\Workspaces\Portal\Portal\EZ.EZControl.Web\typescript\generated\ez.js.map
C:\Workspaces\Portal\Portal\EZ.EZControl.Web\typescript\generated\ez.js
C:\Workspaces\Portal\Portal\EZ.EZControl.Web\typescript\generated\ez.js.map
C:\Workspaces\Portal\Portal\EZ.EZControl.Web\typescript\generated\ez.js
C:\Workspaces\Portal\Portal\EZ.EZControl.Web\typescript\generated\ez.js.map
C:\Workspaces\Portal\Portal\EZ.EZControl.Web\typescript\generated\ez.js
C:\Workspaces\Portal\Portal\EZ.EZControl.Web\typescript\generated\ez.js.map
C:\Workspaces\Portal\Portal\EZ.EZControl.Web\typescript\generated\ez.js
C:\Workspaces\Portal\Portal\EZ.EZControl.Web\typescript\generated\ez.js.map
C:\Workspaces\Portal\Portal\EZ.EZControl.Web\typescript\generated\ez.js
C:\Workspaces\Portal\Portal\EZ.EZControl.Web\typescript\generated\ez.js.map
C:\Workspaces\Portal\Portal\EZ.EZControl.Web\typescript\generated\ez.js
C:\Workspaces\Portal\Portal\EZ.EZControl.Web\typescript\generated\ez.js.map
C:\Workspaces\Portal\Portal\EZ.EZControl.Web\typescript\generated\ez.js
C:\Workspaces\Portal\Portal\EZ.EZControl.Web\typescript\generated\ez.js.map
C:\Workspaces\Portal\Portal\EZ.EZControl.Web\typescript\generated\ez.js
C:\Workspaces\Portal\Portal\EZ.EZControl.Web\typescript\generated\ez.js.map
C:\Workspaces\Portal\Portal\EZ.EZControl.Web\typescript\generated\ez.js
C:\Workspaces\Portal\Portal\EZ.EZControl.Web\typescript\generated\ez.js.map
C:\Workspaces\Portal\Portal\EZ.EZControl.Web\typescript\generated\ez.js
C:\Workspaces\Portal\Portal\EZ.EZControl.Web\typescript\generated\ez.js.map
C:\Workspaces\Portal\Portal\EZ.EZControl.Web\typescript\generated\ez.js
C:\Workspaces\Portal\Portal\EZ.EZControl.Web\typescript\generated\ez.js.map
C:\Workspaces\Portal\Portal\EZ.EZControl.Web\typescript\generated\ez.js
C:\Workspaces\Portal\Portal\EZ.EZControl.Web\typescript\generated\ez.js.map
C:\Workspaces\Portal\Portal\EZ.EZControl.Web\typescript\generated\ez.js
C:\Workspaces\Portal\Portal\EZ.EZControl.Web\typescript\generated\ez.js.map
C:\Workspaces\Portal\Portal\EZ.EZControl.Web\typescript\generated\ez.js
C:\Workspaces\Portal\Portal\EZ.EZControl.Web\typescript\generated\ez.js.map
C:\Workspaces\Portal\Portal\EZ.EZControl.Web\typescript\generated\ez.js
C:\Workspaces\Portal\Portal\EZ.EZControl.Web\typescript\generated\ez.js.map
C:\Workspaces\Portal\Portal\EZ.EZControl.Web\typescript\generated\ez.js
C:\Workspaces\Portal\Portal\EZ.EZControl.Web\typescript\generated\ez.js.map
C:\Workspaces\Portal\Portal\EZ.EZControl.Web\typescript\generated\ez.js
C:\Workspaces\Portal\Portal\EZ.EZControl.Web\typescript\generated\ez.js.map
C:\Workspaces\Portal\Portal\EZ.EZControl.Web\typescript\generated\ez.js
C:\Workspaces\Portal\Portal\EZ.EZControl.Web\typescript\generated\ez.js.map
C:\Workspaces\Portal\Portal\EZ.EZControl.Web\typescript\generated\ez.js
C:\Workspaces\Portal\Portal\EZ.EZControl.Web\typescript\generated\ez.js.map
C:\Workspaces\Portal\Portal\EZ.EZControl.Web\typescript\generated\ez.js
C:\Workspaces\Portal\Portal\EZ.EZControl.Web\typescript\generated\ez.js.map
C:\Workspaces\Portal\Portal\EZ.EZControl.Web\typescript\generated\ez.js
C:\Workspaces\Portal\Portal\EZ.EZControl.Web\typescript\generated\ez.js.map
C:\Workspaces\Portal\Portal\EZ.EZControl.Web\typescript\generated\ez.js
C:\Workspaces\Portal\Portal\EZ.EZControl.Web\typescript\generated\ez.js.map
C:\Workspaces\Portal\Portal\EZ.EZControl.Web\typescript\generated\ez.js
C:\Workspaces\Portal\Portal\EZ.EZControl.Web\typescript\generated\ez.js.map
