<?xml version="1.0" encoding="utf-8"?>
<!-- Generator: Adobe Illustrator 16.0.0, SVG Export Plug-In . SVG Version: 6.00 Build 0)  -->
<!DOCTYPE svg PUBLIC "-//W3C//DTD SVG 1.1//EN" "http://www.w3.org/Graphics/SVG/1.1/DTD/svg11.dtd">
<svg version="1.1" id="icone" xmlns="http://www.w3.org/2000/svg" xmlns:xlink="http://www.w3.org/1999/xlink" x="0px" y="0px"
	 width="140.158px" height="56.562px" viewBox="49.783 43.381 140.158 56.562"
	 enable-background="new 49.783 43.381 140.158 56.562" xml:space="preserve">
<path id="l" fill="#27AAE1" d="M163.442,78.467c-0.412-0.394-0.922-0.602-1.474-0.602h-6.315V61.153c0-0.573-0.215-1.099-0.62-1.523
	c-0.836-0.865-2.303-0.861-3.13-0.001c-0.405,0.423-0.62,0.949-0.62,1.524v18.659c0,0.645,0.242,1.221,0.709,1.673
	c0.452,0.433,1.014,0.661,1.623,0.661h8.354c0.581,0,1.103-0.214,1.512-0.623c0.401-0.406,0.613-0.938,0.613-1.533
	C164.094,79.404,163.87,78.879,163.442,78.467z"/>
<path id="i" fill="#27AAE1" d="M170.167,59.631c-0.829-0.864-2.289-0.873-3.134,0.002c-0.403,0.424-0.617,0.949-0.617,1.521v19.104
	c0,0.571,0.214,1.098,0.62,1.522c0.417,0.434,0.959,0.662,1.565,0.662c0.609,0,1.15-0.229,1.566-0.665
	c0.402-0.423,0.617-0.948,0.617-1.521V61.153C170.786,60.582,170.572,60.056,170.167,59.631z"/>
<path id="v" fill="#27AAE1" d="M189.26,59.557c-0.709-0.65-1.82-0.839-2.798-0.187c-0.433,0.287-0.737,0.705-0.88,1.195
	l-4.048,13.319l-4.065-13.37c-0.168-0.464-0.443-0.84-0.829-1.123c-0.918-0.658-2.027-0.504-2.77,0.149
	c-0.466,0.407-0.711,0.965-0.711,1.61c0,0.078,0.007,0.186,0.02,0.345c0.021,0.178,0.051,0.318,0.1,0.443l5.76,18.22
	c0.172,0.566,0.409,1.053,0.712,1.446c0.293,0.381,0.841,0.835,1.785,0.835c0.979,0,1.526-0.463,1.814-0.855
	c0.278-0.381,0.514-0.849,0.707-1.414l5.763-18.23c0.05-0.125,0.08-0.267,0.101-0.442c0.016-0.144,0.021-0.26,0.021-0.346
	C189.939,60.516,189.704,59.963,189.26,59.557z"/>
<path id="z" fill="#BE1E58" d="M146.37,77.493h-7.477l9.313-14.155c0.444-0.678,0.483-1.543,0.1-2.255
	c-0.383-0.714-1.125-1.156-1.938-1.156h-11.561c-1.214,0-2.202,0.986-2.202,2.2s0.988,2.202,2.202,2.202h7.476l-9.313,14.156
	c-0.446,0.68-0.484,1.544-0.098,2.253c0.385,0.715,1.127,1.158,1.937,1.158h11.561c1.213,0,2.199-0.987,2.199-2.202
	C148.57,78.48,147.583,77.493,146.37,77.493z"/>
<path id="e3" fill="#BE1E58" d="M127.405,77.493h-10.608c-1.213,0-2.201,0.987-2.201,2.201c0,1.215,0.988,2.202,2.201,2.202h10.608
	c1.215,0,2.203-0.987,2.203-2.202C129.608,78.48,128.619,77.493,127.405,77.493z"/>
<path id="e2" fill="#BE1E58" d="M127.405,68.708h-10.608c-1.213,0-2.201,0.988-2.201,2.202s0.988,2.203,2.201,2.203h10.608
	c1.215,0,2.203-0.989,2.203-2.203S128.619,68.708,127.405,68.708z"/>
<path id="e1" fill="#BE1E58" d="M127.405,59.927h-10.608c-1.213,0-2.201,0.986-2.201,2.2s0.988,2.202,2.201,2.202h10.608
	c1.215,0,2.203-0.988,2.203-2.202S128.619,59.927,127.405,59.927z"/>
<path id="heart-l" fill="#BE1E58" d="M78.537,81.434c-1.279-1.279-2.945-2.945-4.585-4.586c-2.337-2.336-4.616-4.615-5.633-5.632
	l-0.002-7.928h0.175h3.63l3.324,3.275l0.853,0.838c0,0,1.004,0.983,1.334,1.312c0.262,0.265,0.591,0.369,0.904,0.369v-3.955
	l-0.896-0.881l-3.826-3.768c0,0-0.337-0.381-0.924-0.381c-0.574,0-6.229,0-6.448,0c-0.003,0-0.005,0-0.008,0
	c-0.721,0-1.306,0.584-1.306,1.305v0.002l0.002,10.596c0,0-0.03,0.506,0.385,0.92c0.031,0.031,8.213,8.213,11.59,11.59
	c0.372,0.372,0.896,0.58,1.433,0.586L78.537,81.434L78.537,81.434z"/>
<path id="heart-r" fill="#960F44" d="M79.392,68.764c0.026-0.025,1.383-1.361,1.383-1.361l0.853-0.838l3.325-3.275h3.63h0.173
	l-0.001,7.928c-1.016,1.015-3.295,3.296-5.632,5.632c-1.641,1.641-3.308,3.307-4.584,4.586v3.663
	c0.504,0.004,1.017-0.173,1.421-0.575c3.371-3.371,11.567-11.568,11.6-11.601c0.415-0.414,0.385-0.92,0.385-0.92l0.001-10.596
	v-0.002c0-0.721-0.584-1.305-1.305-1.305c-0.003,0-0.005,0-0.008,0c-0.221,0-5.874,0-6.449,0c-0.586,0-0.924,0.381-0.924,0.381
	l-3.87,3.811l-0.851,0.838v3.955C78.875,69.084,79.195,68.96,79.392,68.764z"/>
<path id="semi-circulo-l" fill="#1E81AB" d="M59.047,90.826l2.929-2.93c-0.038-0.038-0.079-0.073-0.117-0.111
	c-9.195-9.196-9.195-24.158,0-33.354c4.455-4.454,10.377-6.907,16.679-6.907c6.3,0,12.225,2.453,16.677,6.909
	c0.039,0.039,0.07,0.081,0.106,0.118l2.933-2.932c-0.037-0.038-0.072-0.078-0.111-0.117c-5.236-5.236-12.199-8.121-19.604-8.121
	c-7.407,0-14.369,2.885-19.607,8.121c-5.236,5.236-8.119,12.199-8.119,19.605c0,7.407,2.883,14.368,8.119,19.605
	C58.967,90.752,59.008,90.788,59.047,90.826z"/>
<path id="semi-circulo-r" fill="#27AAE1" d="M98.141,51.502c-0.808-0.81-2.119-0.81-2.928,0c-0.811,0.809-0.811,2.119,0,2.931
	c9.196,9.195,9.196,24.156,0,33.354c-4.446,4.449-10.36,6.902-16.65,6.909c-0.009,0-0.017,0-0.024,0
	c-6.279,0-12.188-2.44-16.639-6.869c-0.811-0.807-2.124-0.803-2.928,0.007c-0.009,0.009-0.015,0.021-0.024,0.029
	c-0.022,0.021-0.051,0.037-0.072,0.061l-8.487,8.486c-0.807,0.81-0.807,2.119,0,2.928c0.405,0.403,0.935,0.606,1.466,0.606
	c0.527,0,1.061-0.203,1.462-0.606l7.183-7.181c5.021,4.317,11.349,6.679,18.041,6.679c0.009,0,0.02,0,0.029,0
	c7.396-0.008,14.347-2.892,19.573-8.12c5.238-5.237,8.123-12.198,8.123-19.604C106.264,63.701,103.379,56.738,98.141,51.502z"/>
</svg>
